Business and Technical Analytics with R
…
Display of tibble rows truncates automatically if too many rows. Use print(tbl_df(my.tbl), n=40) to display more rows (quite troublesome, but look at all the other benefits)

The internal grouping structure can be used for many types of summarization (discussed below)

To get the row numbers for each group, add additional column with mutate of row_number()

d.df = my.df %>%
  group_by(com,dept, grp) %>%
  mutate( idx = row_number()) %>% 
  arrange( com,dept,grp)

print(tbl_df(d.df),n=18)

## # A tibble: 100 x 9
##      com  dept   grp  team   prd   value1   value2   value3   idx
##    <chr> <chr> <chr> <chr> <chr>    <dbl>    <dbl>    <dbl> <int>
##  1    C1    D1    G1    T1    P4 57.38485 25.67368 3.526344     1
##  2    C1    D1    G1    T2    P1 43.88048 17.36577 3.798334     2
##  3    C1    D1    G1    T1    P1 51.92468 19.86104 4.112561     3
##  4    C1    D1    G1    T2    P2 51.59526 19.00501 3.833495     4
##  5    C1    D1    G1    T2    P3 46.49515 18.25825 3.312780     5
##  6    C1    D1    G1    T2    P4 41.16885 17.65594 7.239388     6
##  7    C1    D1    G1    T2    P4 50.11813 21.25232 6.782608     7
##  8    C1    D1    G1    T1    P3 49.79999 13.55708 6.038110     8
##  9    C1    D1    G1    T2    P1 47.53860 19.14849 4.635542     9
## 10    C1    D1    G1    T1    P4 55.63241 16.23800 4.972599    10
## 11    C1    D1    G2    T1    P4 52.18465 13.05189 5.362667     1
## 12    C1    D1    G2    T1    P5 51.69298 18.47111 3.704798     2
## 13    C1    D1    G2    T1    P4 44.06117 20.92194 3.730439     3
## 14    C1    D1    G2    T2    P4 45.23361 20.10846 3.775262     4
## 15    C1    D1    G2    T2    P4 48.92934 16.17850 4.588945     5
## 16    C1    D1    G2    T2    P5 54.77662 20.51524 4.348304     6
## 17    C1    D2    G1    T1    P5 60.24702 17.48262 4.959793     1
## 18    C1    D2    G1    T1    P5 48.77118 20.94729 4.159204     2
## # ... with 82 more rows
…
4.5.2 Counting

count() groups and provide additional column n, which counts the number of rows within the group.

d.df = my.df %>%
  count(com, dept, prd)

d.df

## Source: local data frame [29 x 4]
## Groups: com, dept [?]
## 
## # A tibble: 29 x 4
##      com  dept   prd     n
##    <chr> <chr> <chr> <int>
##  1    C1    D1    P1     3
##  2    C1    D1    P2     1
##  3    C1    D1    P3     2
##  4    C1    D1    P4     8
##  5    C1    D1    P5     2
##  6    C1    D2    P2     4
##  7    C1    D2    P3     6
##  8    C1    D2    P4     4
##  9    C1    D2    P5     4
## 10    C1    D3    P1     5
## # ... with 19 more rows
…
Summarize reduce group level by one, hence n() will return the rows within the new group.

Example below group with three levels (com, dept,prd), however, after summarize, n() returns the number of rows within (com,dept) group.

d.df = my.df %>%
  group_by(com,dept,prd) %>%
  summarize(avg.value1=mean(value1)) %>%
  mutate (c = 1:n())

d.df

## Source: local data frame [29 x 5]
## Groups: com, dept [6]
## 
## # A tibble: 29 x 5
##      com  dept   prd avg.value1     c
##    <chr> <chr> <chr>      <dbl> <int>
##  1    C1    D1    P1   47.78125     1
##  2    C1    D1    P2   51.59526     2
##  3    C1    D1    P3   48.14757     3
##  4    C1    D1    P4   49.33913     4
##  5    C1    D1    P5   53.23480     5
##  6    C1    D2    P2   48.15502     1
##  7    C1    D2    P3   50.31508     2
##  8    C1    D2    P4   51.50564     3
##  9    C1    D2    P5   54.87918     4
## 10    C1    D3    P1   48.15483     1
## # ... with 19 more rows
…
d.df = my.df %>%
  group_by(com, dept, prd) %>%
  summarise( avg_value1 = mean(value1),
             min_value2 = min(value2),
             max_value3 = max(value3),
             n.team = n_distinct(team),
             count = n())

d.df

## Source: local data frame [29 x 8]
## Groups: com, dept [?]
## 
## # A tibble: 29 x 8
##      com  dept   prd avg_value1 min_value2 max_value3 n.team count
##    <chr> <chr> <chr>      <dbl>      <dbl>      <dbl>  <int> <int>
##  1    C1    D1    P1   47.78125   17.36577   4.635542      2     3
##  2    C1    D1    P2   51.59526   19.00501   3.833495      1     1
##  3    C1    D1    P3   48.14757   13.55708   6.038110      2     2
##  4    C1    D1    P4   49.33913   13.05189   7.239388      2     8
##  5    C1    D1    P5   53.23480   18.47111   4.348304      2     2
##  6    C1    D2    P2   48.15502   16.31955   5.984780      2     4
##  7    C1    D2    P3   50.31508   14.24332   5.714599      2     6
##  8    C1    D2    P4   51.50564   12.04478   6.206739      2     4
##  9    C1    D2    P5   54.87918   17.48262   4.959793      2     4
## 10    C1    D3    P1   48.15483   16.28942   6.466723      2     5
## # ... with 19 more rows

4.5.5.2 Summarize Specific Columns, with Single Function

my.df %>%
  group_by(com, dept, prd) %>%
  summarise_at(c('value2', 'value3'), mean)

## Source: local data frame [29 x 5]
## Groups: com, dept [?]
## 
## # A tibble: 29 x 5
##      com  dept   prd   value2   value3
##    <chr> <chr> <chr>    <dbl>    <dbl>
##  1    C1    D1    P1 18.79177 4.182146
##  2    C1    D1    P2 19.00501 3.833495
##  3    C1    D1    P3 15.90767 4.675445
##  4    C1    D1    P4 18.88509 4.997282
##  5    C1    D1    P5 19.49317 4.026551
##  6    C1    D2    P2 20.13975 4.692159
##  7    C1    D2    P3 20.44208 4.779972
##  8    C1    D2    P4 18.35243 5.488939
##  9    C1    D2    P5 19.79051 4.291767
## 10    C1    D3    P1 18.56090 5.566364
## # ... with 19 more rows

4.5.5.3 Summarize All Columns, with Single Function

Notice that each column whin the group will be summarized with one more functions. This includes columns which are NOT numeric, resulting warnings and NA.

my.df %>%
  group_by(com, dept, prd) %>%
  summarise_all(mean)

## Source: local data frame [29 x 8]
## Groups: com, dept [?]
## 
## # A tibble: 29 x 8
##      com  dept   prd   grp  team   value1   value2   value3
##    <chr> <chr> <chr> <lgl> <lgl>    <dbl>    <dbl>    <dbl>
##  1    C1    D1    P1    NA    NA 47.78125 18.79177 4.182146
##  2    C1    D1    P2    NA    NA 51.59526 19.00501 3.833495
##  3    C1    D1    P3    NA    NA 48.14757 15.90767 4.675445
##  4    C1    D1    P4    NA    NA 49.33913 18.88509 4.997282
##  5    C1    D1    P5    NA    NA 53.23480 19.49317 4.026551
##  6    C1    D2    P2    NA    NA 48.15502 20.13975 4.692159
##  7    C1    D2    P3    NA    NA 50.31508 20.44208 4.779972
##  8    C1    D2    P4    NA    NA 51.50564 18.35243 5.488939
##  9    C1    D2    P5    NA    NA 54.87918 19.79051 4.291767
## 10    C1    D3    P1    NA    NA 48.15483 18.56090 5.566364
## # ... with 19 more rows

4.5.5.4 Summarize Specified Columns, with Single Function

my.df %>%
  group_by(com, dept, prd) %>%
  summarise_at(c('value2','value3'),mean)

## Source: local data frame [29 x 5]
## Groups: com, dept [?]
## 
## # A tibble: 29 x 5
##      com  dept   prd   value2   value3
##    <chr> <chr> <chr>    <dbl>    <dbl>
##  1    C1    D1    P1 18.79177 4.182146
##  2    C1    D1    P2 19.00501 3.833495
##  3    C1    D1    P3 15.90767 4.675445
##  4    C1    D1    P4 18.88509 4.997282
##  5    C1    D1    P5 19.49317 4.026551
##  6    C1    D2    P2 20.13975 4.692159
##  7    C1    D2    P3 20.44208 4.779972
##  8    C1    D2    P4 18.35243 5.488939
##  9    C1    D2    P5 19.79051 4.291767
## 10    C1    D3    P1 18.56090 5.566364
## # ... with 19 more rows

4.5.5.5 Summarize Series of Columns, with Single Function

Use vars() to select the sequence of variable names in colon :

my.df %>%
  group_by(com, dept, prd) %>%
  summarise_at(vars(value1:value3),mean)

## Source: local data frame [29 x 6]
## Groups: com, dept [?]
## 
## # A tibble: 29 x 6
##      com  dept   prd   value1   value2   value3
##    <chr> <chr> <chr>    <dbl>    <dbl>    <dbl>
##  1    C1    D1    P1 47.78125 18.79177 4.182146
##  2    C1    D1    P2 51.59526 19.00501 3.833495
##  3    C1    D1    P3 48.14757 15.90767 4.675445
##  4    C1    D1    P4 49.33913 18.88509 4.997282
##  5    C1    D1    P5 53.23480 19.49317 4.026551
##  6    C1    D2    P2 48.15502 20.13975 4.692159
##  7    C1    D2    P3 50.31508 20.44208 4.779972
##  8    C1    D2    P4 51.50564 18.35243 5.488939
##  9    C1    D2    P5 54.87918 19.79051 4.291767
## 10    C1    D3    P1 48.15483 18.56090 5.566364
## # ... with 19 more rows

4.5.5.6 Summarize Numeric Columns, with Single Function

my.df %>%
  group_by(com, dept, prd) %>%
  summarise_if(is.numeric,mean)

## Source: local data frame [29 x 6]
## Groups: com, dept [?]
## 
## # A tibble: 29 x 6
##      com  dept   prd   value1   value2   value3
##    <chr> <chr> <chr>    <dbl>    <dbl>    <dbl>
##  1    C1    D1    P1 47.78125 18.79177 4.182146
##  2    C1    D1    P2 51.59526 19.00501 3.833495
##  3    C1    D1    P3 48.14757 15.90767 4.675445
##  4    C1    D1    P4 49.33913 18.88509 4.997282
##  5    C1    D1    P5 53.23480 19.49317 4.026551
##  6    C1    D2    P2 48.15502 20.13975 4.692159
##  7    C1    D2    P3 50.31508 20.44208 4.779972
##  8    C1    D2    P4 51.50564 18.35243 5.488939
##  9    C1    D2    P5 54.87918 19.79051 4.291767
## 10    C1    D3    P1 48.15483 18.56090 5.566364
## # ... with 19 more rows

4.5.5.7 Summarize with Multiple Functions

Any of the above summarize can combine with funs() to specify multiple functions.

my.df %>%
  group_by(com, dept, prd) %>%
  summarise_if(is.numeric, funs(mean,sd))

## Source: local data frame [29 x 9]
## Groups: com, dept [?]
## 
## # A tibble: 29 x 9
##      com  dept   prd value1_mean value2_mean value3_mean value1_sd
##    <chr> <chr> <chr>       <dbl>       <dbl>       <dbl>     <dbl>
##  1    C1    D1    P1    47.78125    18.79177    4.182146  4.027584
##  2    C1    D1    P2    51.59526    19.00501    3.833495       NaN
##  3    C1    D1    P3    48.14757    15.90767    4.675445  2.336877
##  4    C1    D1    P4    49.33913    18.88509    4.997282  5.665388
##  5    C1    D1    P5    53.23480    19.49317    4.026551  2.180465
##  6    C1    D2    P2    48.15502    20.13975    4.692159  1.368888
##  7    C1    D2    P3    50.31508    20.44208    4.779972  3.929730
##  8    C1    D2    P4    51.50564    18.35243    5.488939  4.903765
##  9    C1    D2    P5    54.87918    19.79051    4.291767  5.315652
## 10    C1    D3    P1    48.15483    18.56090    5.566364  6.122913
## # ... with 19 more rows, and 2 more variables: value2_sd <dbl>,
## #   value3_sd <dbl>
…
